{
  "Category" : [
    {
      "Ingredient Name" : "fish",
      "Recipe Count" : "" ,
      "Background" : "yellowcircle",
      "Ingredient Category":"Seafood\r\n&\r\nFish"
    },

    {
      "Ingredient Name" : "tofu",
      "Recipe Count" : "" ,
      "Background" : "yellowcircle",
      "Ingredient Category":"Tofu"
    },
    {

      "Ingredient Name" : "chicken",
      "Recipe Count" : "" ,
      "Background" : "bluecircle",
      "Ingredient Category":"Chicken\r\n&\r\nEgg"

    },

    {

      "Ingredient Name" : "detox",
      "Recipe Count" : "" ,
      "Background" : "bluecircle",
      "Ingredient Category":"Detox"

    },


    {

      "Ingredient Name" : "weight",
      "Recipe Count" : "" ,
      "Background" : "bluecircle",
      "Ingredient Category":"Weight Loss"

    },



    {
      "Ingredient Name" : "fruit",
      "Recipe Count" : "",
      "Background" : "pinkcircle",
      "Ingredient Category":"Vegetable\r\n&\r\nFruit"
    },



    {
      "Ingredient Name" : "turkey",
      "Recipe Count" : "" ,
      "Background" : "greencircle",
      "Ingredient Category":"Turkey"
    },
    
    {

      "Ingredient Name" : "beaf",
      "Recipe Count" : "" ,
      "Background" : "browncircle",
      "Ingredient Category":"Beef"
    },

    {
      "Ingredient Name" : "pasta",
      "Recipe Count" : "" ,
      "Background" : "deepredcircle",
      "Ingredient Category":"Pasta"
    },

    {
      "Ingredient Name" : "starch",
      "Recipe Count" : "" ,
      "Background" : "pinkcircle",
      "Ingredient Category":"Starch"
    },

     {
      "Ingredient Name" : "bread",
      "Recipe Count" : "" ,
       "Background" : "yellowcircle",
       "Ingredient Category":"Bread"
    },

    {
      "Ingredient Name" : "cereals",
      "Recipe Count" : "" ,
      "Background" : "bluecircle",
      "Ingredient Category":"Cereals"
    }
    ,
    {
      "Ingredient Name" : "rice",
      "Recipe Count" : "" ,
      "Background" : "skybluecircle",
      "Ingredient Category":"Rice"
    },
    {
      "Ingredient Name" : "nuts",
      "Recipe Count" : "" ,
      "Background" : "browncircle",
      "Ingredient Category":"Nuts"
    },
    {
      "Ingredient Name" : "pizza",
      "Recipe Count" : "" ,
      "Background" : "yellowcircle",
      "Ingredient Category":"Pizza"
    },

    {
      "Ingredient Name" : "chocolate",
      "Recipe Count" : "" ,
      "Background" : "yellowcircle",
      "Ingredient Category":"Chocolate"
    }








  ]

}