{
  "Dinner" : [


    {
      "Recipe Name" : "Curried Beef and Pumpkin with Coriander",
      "Ingredients" : "2 lbs. beef chuck steak, cubed\n2 Tbsp. ghee\n2 cloves garlic, chopped\n1 medium red onion, peeled\n1 Tbsp. curry powder\n1 tsp. turmeric powder\n2 cups beef stock, reduced sodium\n1 lb. pumpkin, cubed\n¼ cup fresh coriander\nsalt and freshly ground black pepper\n",
      "Method" : "1. In a skillet, stir-fry onion and garlic in ghee for 1 minute or until aromatic over medium-high heat.\n2. Add the curry powder and turmeric powder. Cook, stirring for 30 seconds.\n3. Add the beef and cook for 3-5 minutes or until browned. Transfer mixture in a slow cooker.\n4. Add the beef stock. Cover and cook on high for 4 ½ hours. \n5. Stir in the pumpkin and coriander during the last 1 hour of cooking time. Season with salt and pepper, to taste.\n6. Transfer in a serving dish. Sprinkle with chopped fresh coriander, if desired.\n7. Serve and enjoy\n",
      "Ingredient Type": "Beef",
      "Meal Type" : "Lunch, Dinner",
      "Food Type" : "Main Dish",
      "No. of Servings" : "8",
      "Calorie Budget" : ">200 calories",
      "Nutritional Information" : "Energy - 272 calories\nFat - 11 g\nCarbohydrates - 7 g\nProtein - 36 g\nSodium - 350 mg"
    },
    {
      "Recipe Name" : "Beef and Vegetable Stew in Tomato Sauce",
      "Ingredients" : "2 lbs. beef chuck steak, cubed\n2 medium onion, sliced\n2 cloves garlic, minced \n1 cup tomato puree\n1 medium carrot, cubed\n1 medium potato, cubed\n½ cup green peas\n1 ½ cups beef stock\nsalt and freshly ground black pepper\n",
      "Method" : "1. In a large pan or skillet, stir-fry onions and garlic in oil over medium-high until fragrant.\n2. Add the beef and cook until browned, stirring occasionally. Transfer into the slow cooker.\n3. Add tomato puree and stock. Cover and cook on low for 8 hours. \n4. Add the carrot, potato, and green peas during the last 3 hours of cooking time, Season with salt and pepper, to taste.\n5. Transfer in a serving bowl.\n",
      "Ingredient Type": "Beef",
      "Meal Type" : "Lunch, Dinner",
      "Food Type" : "Main Dish",
      "No. of Servings" : "8",
      "Calorie Budget" : ">200 calories",
      "Nutritional Information" : ""
    }
    ,

    {
      "Recipe Name" : "Chicken Breast Stuffed with Feta Cheese Spinach and Pecan",
      "Ingredients" : "2 lbs. chicken breast fillet\n 1/4cup feta cheese, crumbled\n2 Tbsp. olive oil\n1/2 oz. baby spinach\n1/4 cup chopped pecans\n¼ tsp. Kosher salt\n¼ tsp. freshly ground black pepper\n",
      "Method" : "1. Combine feta cheese, spinach, and pecans in a mixing bowl.\n2. Slice a small pocket on the side of each chicken breast fillet and insert the blue cheese mixture onto the pockets. Use a toothpick to enclose and hold the filling. Season with salt and pepper.\n3. Heat oil in a non-stick frying pan over medium heat, cook chicken for about 5-7 minutes on each side or until golden brown. Remove from heat and transfer to a cutting board. Slice chicken crosswise and place in a serving platter. \n4. Serve and enjoy.",
      "Ingredient Type": "Chicken",
      "Meal Type" : "Lunch, Dinner",
      "Food Type" : "Main Dish",
      "No. of Servings" : "8",
      "Calorie Budget" : ">300 calories",
      "Nutritional Information" : "Energy - 315 calories\nFat - 16 g\nCarbohydrates - 2 g\nProtein - 36 g\nSodium - 302 mg",
      "Image Url" : "file:///android_asset/easyszechuanchickenwithveggies.jpg"

    },
    {
      "Recipe Name" : "Easy Chicken Tandoori",
      "Ingredients" : "½ cup plain Greek-style yogurt\n2 lbs. chicken breast fillet\n½ cup tandoori paste\n1 tsp. cumin, ground\n¼ tsp. Kosher salt\n¼ tsp. freshly ground black pepper\n1 medium white onion, cut into rings, to serve\nlettuce leaves, to serve\n",
      "Method" : "1. Combine yogurt, tandoori paste, and cumin in a non-reactive mixing bowl, season with salt and pepper. Mix well. Add the chicken and turn to coat all sides. Cover and refrigerate for at least an hour to absorb flavors. \n2. Preheat oven at 200 C or 400 F.\n3. Place chicken in a baking dish. Cover with foil. Bake for 20 minutes. Remove Cover.\n4. Baste chicken with pan juices. Cook further 20 minutes or until cooked through. \n5. Transfer in a serving platter with lettuce leaves and top with onion rings.\n6. Serve with warm naan bread.\n7. Enjoy.\n",
      "Ingredient Type": "Chicken",
      "Meal Type" : "Lunch, Dinner",
      "Food Type" : "Main Dish",
      "No. of Servings" : "8",
      "Calorie Budget" : ">200 calories",
      "Nutritional Information" : "Energy - 246 calories\nFat - 9 g\nCarbohydrates - 3 g\nProtein - 35 g\nSodium - 251 mg"
    },
    {
      "Recipe Name" : "Easy Szechuan Chicken with Veggies",
      "Ingredients" : "1 lb. chicken breast fillet, cut into strips\n2 Tbsp. peanut oil\n2 cloves garlic, crushed\n1 medium onion, chopped\n1 medium carrot, sliced diagonally\n2 cups green beans, cut into small pieces\n2 Tbsp. Chinese cooking wine \n2 Tbsp. soy sauce\n2 tsp. Szechuan pepper, ground \n2 tsp. cornstarch + 2 Tbsp. water\n1 Tbsp. vinegar\n1 Tbsp. brown sugar\n1 Tbsp. chilli sauce\n2 Tbsp. fresh coriander, chopped, to serve\n",
      "Method" : "1. Heat oil in a skillet or wok over medium heat. Stir-fry garlic and onion until fragrant. \n2. Add chicken, cook for 7-8 minutes or until browned.\n3. Add the carrot, green beans, wine, soy sauce, Szechuan pepper, vinegar, sugar, and chili sauce. Cook, stirring for 7 minutes.\n4. Meanwhile, whisk together the cornflour and water until dissolved. Add to skillet and cook, stirring for another 5 minutes. Remove from heat.\n5. Transfer into a serving dish. Sprinkle with fresh coriander.\n6. Serve and enjoy\n",
      "Ingredient Type": "Chicken",
      "Meal Type" : "Lunch, Dinner",
      "Food Type" : "Main Dish",
      "No. of Servings" : "6",
      "Calorie Budget" : ">200 calories",
      "Nutritional Information" : "Energy - 225 calories\nFat - 10 g\nCarbohydrates - 9 g\nProtein - 23 g\nSodium - 349 mg"
    },
    {
      "Recipe Name" : "Cajun Spiced Grilled Chicken Breast",
      "Ingredients" : "4 pcs (4 oz.) chicken breast fillet \n¼ cup olive oil\n2 Tbsp. Cajun seasoning\n2 Tbsp. lime juice\n2 Tbsp. honey\nsalt and pepper, to taste\n",
      "Method" : "1. In a non-reactive bowl, combine olive oil, Cajun seasoning, lime juice, and honey. Reserve half of the mixture in a small bowl. Set aside.\n2. Add the chicken into the bowl and turn to coat all sides. Season with salt and pepper. Cover and let stand for at least 1 hour.\n3. Preheat grill to medium-high.\n4. Grill chicken fillet for about 7-8 minutes on each side or until cooked through, brushing with reserved Cajun marinade frequently. Transfer to a serving dish.\n5. Serve and enjoy.\n",
      "Ingredient Type": "Chicken",
      "Meal Type" : "Lunch, Dinner",
      "Food Type" : "Main Dish",
      "No. of Servings" : "4",
      "Calorie Budget" : ">200 calories",
      "Nutritional Information" : "Energy - 282 calories\nFat - 15 g\nCarbohydrates - 9 g\nProtein - 28 g\nSodium - 321 mg"
    },
    {
      "Recipe Name" : "Chicken Barbecue with Garlic and Rosemary",
      "Ingredients" : "4 pcs (4 oz.) chicken breast fillet \n¼ cup olive oil\n2 Tbsp. soy sauce\n1 Tbsp. lemon juice\n1 Tbsp. honey\n1 Tbsp. garlic, minced\n1 Tbsp. fresh rosemary, chopped\nsalt and pepper, to taste",
      "Method" : "1. In a non-reactive bowl, combine olive oil, soy sauce, lemon juice, honey, garlic, and rosemary. Reserve half of the mixture in a small bowl. Set aside.\n2. Add the chicken into the bowl and turn to coat all sides. Season with salt and pepper. Cover and let stand for at least 1 hour.\n3. Preheat grill to medium-high.\n4. Grill chicken fillet for about 5-7 minutes on each side or until cooked through, brushing with reserved barbecue marinade frequently. Transfer to a serving dish.\n5. Serve and enjoy.\n",
      "Ingredient Type": "Chicken",
      "Meal Type" : "Lunch, Dinner",
      "Food Type" : "Main Dish",
      "No. of Servings" : "4",
      "Calorie Budget" : ">200 calories",
      "Nutritional Information" : "Energy - 292 calories\nFat - 16 g\nCarbohydrates - 11 g\nProtein - 28 g\nSodium - 450 mg"
    },
    {
      "Recipe Name" : "Chicken and Veggie Kebabs",
      "Ingredients" : "1 lb. chicken breast fillet, cut into 1-inch cubes\n1 medium green bell pepper, cut into 1-inch pieces\n1 medium red bell pepper, cut into 1-inch pieces\n2 medium onion, quartered \n¼ cup olive oil\n2 Tbsp. lemon juice\n1 tsp. ground cumin\n1 tsp. ground coriander seed \n¼ tsp. Kosher salt\n¼ tsp. freshly ground black pepper\n",
      "Method" : "1. Whisk together oil, lemon juice, cumin, and coriander in a glass bowl. Season with salt and pepper. Reserve half of the mixture. Set aside.\n2. Pour half of the marinade onto the chicken. Mix well. Cover and refrigerate for at least 30 minutes.\n3. Preheat grill at medium-high.\n4. Thread chicken, bell pepper, and onion alternately onto the skewers.\n5. Grill chicken kebabs for 7-8 minutes on each side or until cooked through, brushing with reserved marinade frequently. Transfer to a serving dish.\n6. Serve and enjoy.\n",
      "Ingredient Type": "Chicken",
      "Meal Type" : "Lunch, Dinner",
      "Food Type" : "Main Dish",
      "No. of Servings" : "4",
      "Calorie Budget" : ">200 calories",
      "Nutritional Information" : "Energy - 245 calories\nFat - 14 g\nCarbohydrates - 6 g\nProtein - 23 g\nSodium - 167 mg"
    },
    {
      "Recipe Name" : "Hawaiian Chicken Kebabs",
      "Ingredients" : "1 lb. chicken breast fillet, cut into 1-inch cubes\n1 cup pineapple chunks\n1 cup cherry tomatoes \n¼ cup pineapple juice\n2 Tbsp. olive oil\n2 Tbsp. soy sauce\n¼ tsp. freshly ground black pepper\n\nYou will need:\n12 pcs. wooden or metal skewers\n\n",
      "Method" : "1. Whisk together oil, pineapple juice, soy sauce, and pepper in a glass bowl. Reserve half of the marinade. \n2. Add the chicken. Mix well. Cover and refrigerate for at least 1 hour.\n3. Preheat grill at medium-high.\n4. Thread alternately the chicken, pineapple chunks, and cherry tomatoes onto the skewers.\n5. Grill chicken kebabs for 7-8 minutes on each side or until cooked through, brushing with reserved marinade frequently. Transfer to a serving dish.\n6. Serve and enjoy.\n",
      "Ingredient Type": "Chicken",
      "Meal Type" : "Lunch, Dinner",
      "Food Type" : "Main Dish",
      "No. of Servings" : "4",
      "Calorie Budget" : ">200 calories",
      "Nutritional Information" : "Energy - 277 calories\nFat - 14 g\nCarbohydrates - 10 g\nProtein - 28 g\nSodium - 427 mg"
    },
    {
      "Recipe Name" : "Skewered Chicken Tikka",
      "Ingredients" : "1 lbs. chicken breast fillet, cut into 1-inch cubes\n6 oz. Greek yogurt\n1 Tbsp. garlic, minced\n1 Tbsp. fresh ginger, grated\n1 tsp. chili powder\n1 tsp. turmeric powder\n1 tsp. coriander seeds, ground\n2 tsp. brown sugar\nsalt and white pepper, to taste\n\nYou will need:\n12 pcs. wooden or metal skewers\n",
      "Method" : "1. Whisk together yogurt, garlic, ginger, chili, turmeric, coriander, and sugar in a glass bowl. Reserve half of the marinade. \n2. Add the chicken into the bowl. Mix well. Cover and refrigerate for at least 1 hour.\n3. Preheat grill at medium-high.\n4. Thread chicken onto the skewers.\n5. Grill chicken skewers for 7-8 minutes on each side or until cooked through, brushing with reserved marinade frequently. Transfer to a serving dish.\n6. Serve and enjoy.\n",
      "Ingredient Type": "Chicken",
      "Meal Type" : "Lunch, Dinner",
      "Food Type" : "Main Dish",
      "No. of Servings" : "4",
      "Calorie Budget" : ">200 calories",
      "Nutritional Information" : "Energy - 265 calories\nFat - 10 g\nCarbohydrates - 6 g\nProtein - 38 g\nSodium - 320 mg"
    },
    {
      "Recipe Name" : "Orange-Honey Glazed Chicken Breast",
      "Ingredients" : "4 (4 oz.) chicken breast fillet\n1/3 cup fresh orange juice \n1 tsp. freshly orange zest\n2 Tbsp. honey\n2 Tbsp. soy sauce\n¼ cup green onion\n1 Tbsp. sesame seeds    \n",
      "Method" : "1. Combine orange juice, orange zest, honey , and soy sauce in a large bowl. Add the chicken fillet and stir to coat. Cover and refrigerate for at least 1 hour. \n2. Grease grill or griddle using cooking oil spray and heat over medium-high heat.\n3. Cook chicken for 7-8 minutes on each side.\n4. Place the used orange-honey marinade in a small saucepan. Cook over high heat and bring to a boil until thickened to a glaze.\n5. Brush the orange-honey glaze onto chicken, turning it occasionally for at least 10 minutes or until cooked.\n6. Place chicken in a serving dish. Garnish with green onion and sprinkle with sesame seeds.\n7. Serve and enjoy.",
      "Ingredient Type": "Chicken",
      "Meal Type" : "Lunch, Dinner",
      "Food Type" : "Main Dish",
      "No. of Servings" : "4",
      "Calorie Budget" : ">200 calories",
      "Nutritional Information" : "Energy - 241 calories\nFat - 8 g\nCarbohydrates - 14 g\nProtein - 27 g\nSodium - 532 mg"
    },
    {
      "Recipe Name" : "Chicken Apple and Watercress Salad",
      "Ingredients" : "12 oz. cooked chicken breast, cut into strips\n2 medium red apple, cored and thinly sliced\n1 bunch watercress, sprigs picked, washed and dried\n1/2 cup coarsely chopped walnuts\n\nLemon-Yogurt Dressing:\n6 oz. Greek yogurt\n2 Tbsp. lemon juice\n1 clove garlic, minced\nsalt and freshly ground black pepper \n",
      "Method" : "1. Whisk together yogurt, lemon juice, and garlic in a small glass bowl. Season with salt and pepper to taste. Set aside.\n2. Combine the chicken, watercress, and apple in a large bowl. Toss to mix well.\n3. Divide into serving plates. Drizzle with prepared lemon-yogurt dressing. Sprinkle with chopped walnuts.\n4. Serve immediately and enjoy.\n",
      "Ingredient Type": "Chicken",
      "Meal Type" : "Lunch, Dinner",
      "Food Type" : "Salad",
      "No. of Servings" : "4",
      "Calorie Budget" : ">300 calories",
      "Nutritional Information" : "Energy - 333 calories\nFat - 13 g\nCarbohydrates - 17 g\nProtein - 37 g\nSodium - 158 mg"
    },
    {
      "Recipe Name" : "Honey-Lemon Grilled Chicken Salad",
      "Ingredients" : "4 pcs. (4 oz.) chicken breast fillet \n2 Tbsp. olive oil\n1 Tbsp. lemon zest, finely grated \nsalt and pepper, to taste\n\nFor the Green Salad:\n16 oz. mixed fresh greens, torn\n1 cup croutons, herbed\n2 oz. fresh parmesan, grated\n\nHoney-Mustard Dressing:\n2 Tbsp. lemon juice\n2 Tbsp. Dijon mustard\n2 Tbsp. olive oil\n1 Tbsp. honey\n",
      "Method" : "1. In a non-reactive bowl, combine olive oil, lemon zest, and honey. Add the chicken and turn to coat all sides. Season with salt and pepper. Cover and let stand for at least 30 minutes.\n2. To Prepare the Salad Dressing: Whisk together lemon juice, Dijon mustard, olive oil, and honey.  Set aside.\n3. Preheat grill to medium-high.\n4. Grill chicken fillet for 7-8 minutes on each side or until cooked through. Transfer to a plate. Slice into strips. Cover to keep warm.\n5. Toss fresh greens and croutons in a large bowl. Divide into serving plates. Drizzle with prepared honey-lemon dressing. Top with parmesan and grilled chicken fillet.\n6. Serve and enjoy.\n",
      "Ingredient Type": "Chicken",
      "Meal Type" : "Lunch, Dinner",
      "Food Type" : "Salad",
      "No. of Servings" : "4",
      "Calorie Budget" : ">300 calories",
      "Nutritional Information" : "Energy - 363 calories\nFat - 13 g\nCarbohydrates - 14 g\nProtein - 31 g\nSodium - 352 mg"
    },
    {
      "Recipe Name" : "Chicken with Tomato Bean and Pepper",
      "Ingredients" : "2 lbs. chicken breast fillet, diced\n2 Tbsp. olive oil\n1 Tbsp. garlic, minced\n1 medium onion, chopped\n2 medium tomatoes, diced\n1 medium red bell pepper, diced\n4 oz. green beans, cut into small pieces\n½ cup tomato puree\n2 Tbsp. fresh mixed herbs\n¼ tsp. Kosher salt \n¼ tsp. freshly ground black pepper\n",
      "Method" : "1. Heat oil in a skillet over medium high heat. Stir-fry garlic and onion until fragrant.\n2. Add the chicken and cook for 7-8 minutes or until browned.\n3. Add the tomatoes, bell pepper, green beans, tomato puree, and herbs. Cover and cook further 15 minutes or until cooked through, stirring occasionally. Season with salt and pepper to taste.\n4. Serve and enjoy.\n",
      "Ingredient Type": "Chicken",
      "Meal Type" : "Lunch, Dinner",
      "Food Type" : "Main Dish",
      "No. of Servings" : "8",
      "Calorie Budget" : ">200 calories",
      "Nutritional Information" : "Energy - 274 calories\nFat - 12 g\nCarbohydrates - 6 g\nProtein - 34 g\nSodium - 179 mg"
    },
    {
      "Recipe Name" : "Baked Chicken with Garlic and Herbs",
      "Ingredients" : "2 lbs. chicken breast fillet\n1 Tbsp. garlic, minced\n¼ cup olive oil\n2 Tbsp. fresh thyme, chopped\n2 Tbsp. fresh sage, chopped\n¼ tsp. Kosher salt \n¼ tsp. freshly ground black pepper\n",
      "Method" : "1. Place olive oil, garlic, thyme, and sage in a non-reactive mixing bowl. Mix well. Using your fingers, gently rub mixture onto the chicken. Season with salt and pepper. Cover and refrigerate for 30 minutes to absorb flavors.\n2. Preheat oven to 220 C or 400 F. \n3. Place chicken in a baking dish. Cover with foil and bake for 20 minutes. Remove cover and baste with pan juices. Bake further 15-20 minutes or until chicken is golden and meat is cooked through.\n4. Serve and enjoy. \n",
      "Ingredient Type": "Chicken",
      "Meal Type" : "Lunch, Dinner",
      "Food Type" : "Main Dish",
      "No. of Servings" : "8",
      "Calorie Budget" : ">200 calories",
      "Nutritional Information" : "Energy - 273 calories\nFat - 14 g\nCarbohydrates - 1 g\nProtein - 33 g\nSodium - 172 mg"
    },
    {
      "Recipe Name" : "Asian Style Baked Chicken with Veggies",
      "Ingredients" : "4 (4 oz.) skinless chicken breast fillet\n2 Tbsp. garlic, minced\n2 Tbsp. fresh ginger, grated\ndash of salt and pepper\n1 lb. baby potatoes\n1 cup baby carrots\n1 cup button mushrooms\n¼ cup Chinese rice wine\n2 Tbsp. soy sauce\n1 Tbsp. sesame oil\n",
      "Method" : "1. Preheat oven at 200 C or 400 F.\n2. Rub chicken breast with garlic and ginger. Season with salt and pepper. Set aside.\n3. In a large baking dish, combine rice wine, soy sauce, and sesame oil. Add the potatoes, carrots, and button mushrooms. Mix well to coat. \n4. Place the chicken fillet on top of the mixed vegetables. Cover with foil. Bake for 20 minutes. Remove cover and cook further 10 minutes or until cooked through. Brush chicken with pan juices.\n5. Serve and enjoy.\n",
      "Ingredient Type": "Chicken",
      "Meal Type" : "Lunch, Dinner",
      "Food Type" : "Main Dish",
      "No. of Servings" : "4",
      "Calorie Budget" : ">300 calories",
      "Nutritional Information" : "Energy - 369 calories\nFat - 12 g\nCarbohydrates - 28 g\nProtein - 38 g\nSodium - 522 mg"
    },
    {
      "Recipe Name" : "Chicken and Mushrooms in Wine Sauce",
      "Ingredients" : "2 lbs. chicken breast fillet, cubed\n2 Tbsp. olive oil\n1 Tbsp. garlic, minced\n1 cup button mushrooms, sliced\n1 cup cream of mushroom\n½ cup white wine\n¼ cup low-salt chicken stock\n1 tsp. cornstarch\n2 Tbsp. fresh parsley, chopped\n¼ tsp. Kosher salt \n¼ tsp. freshly ground black pepper\n",
      "Method" : "1. Heat oil in a skillet over medium high heat. Stir-fry garlic until fragrant.\n2. Add the chicken and cook for 7-8 minutes or until browned.\n3. Add the button mushrooms, cream of mushroom, and white wine. Cook stirring for 15 minutes.\n4. Meanwhile, combine chicken stock and cornstarch. Stir until dissolved.  \n5. Add the chicken stock mixture and parsley onto the skillet and cook further 5 minutes or until cooked through, stirring occasionally. Season with salt and pepper to taste\n6. Serve and enjoy.\n",
      "Ingredient Type": "Chicken",
      "Meal Type" : "Lunch, Dinner",
      "Food Type" : "Main Dish",
      "No. of Servings" : "8",
      "Calorie Budget" : ">200 calories",
      "Nutritional Information" : "Energy - 276 calories\nFat - 12 g\nCarbohydrates - 2 g\nProtein - 33 g\nSodium - 370 mg"
    },
    {
      "Recipe Name" : "Asian Chicken Fried Rice",
      "Ingredients" : "2 Tbsp. peanut oil\n12 oz. skinless chicken breast fillet, cut into strips\n1 Tbsp. garlic, minced\n1 medium onion, sliced\n1 medium carrot, julienned\n1 cup frozen green peas, thawed\n2 Tbsp. hoisin sauce\n¼ cup Chinese rice wine\n4 cups cooked rice\n",
      "Method" : "1. Heat a large skillet or wok over high heat, add the oil and swirl to coat the base and the sides. Stir fry garlic and onion for 30 seconds or until fragrant. \n2. Add chicken and cook for 7-8 minutes or until browned. \n3. Add bell pepper, peas, carrot, hoisin sauce, and rice wine. Cook stirring for 5 minutes.\n4. Add rice and cook further 7 minutes. Toss to combine all ingredients. \n5. Serve and enjoy.\n",
      "Ingredient Type": "Chicken",
      "Meal Type" : "Lunch, Dinner",
      "Food Type" : "Main Dish",
      "No. of Servings" : "4",
      "Calorie Budget" : ">400 calories",
      "Nutritional Information" : "Energy - 462 calories\nFat - 13 g\nCarbohydrates - 57 g\nProtein - 31 g\nSodium - 350 mg"
    },
    {
      "Recipe Name" : "Grilled Chicken Breast with Paprika",
      "Ingredients" : "4 (4 oz.) skinless chicken breast fillet\n2 Tbsp. olive oil\n1 Tbsp. sweet paprika\n2 tsp. spicy barbeque seasoning\n3 cloves garlic, minced\n",
      "Method" : "1. Place chicken fillet in a non-reactive bowl. Rub chicken with oil, paprika, barbecue seasoning, and garlic. Cover and refrigerate for at least 30 minutes.\n2. Preheat chargrill to medium high.\n3. Grill chicken for about 8-10 minutes on each side or until grill marks form and cooked through.\n4. Serve and enjoy.\n",
      "Ingredient Type": "Chicken",
      "Meal Type" : "Lunch, Dinner",
      "Food Type" : "Main Dish",
      "No. of Servings" : "4",
      "Calorie Budget" : ">200 calories",
      "Nutritional Information" : "Energy - 288 calories\nFat - 13 g\nCarbohydrates - 3 g\nProtein - 34 g\nSodium - 330 mg"
    },
    {
      "Recipe Name" : "Chicken Asparagus Soup",
      "Ingredients" : "12 oz. chicken breast fillet, cooked and shredded\n6 cups chicken stock, unsalted\n1 leek, thinly sliced\n1 Tbsp. flat-leaf parsley, chopped\n1 bunch asparagus, trimmed and halved\nsalt and freshly ground black pepper, to taste\n",
      "Method" : "1. Heat chicken stock in a large saucepan, add leek and bring to boil. Reduced heat to low and cook for 5 minutes.\n2. Add the asparagus and parsley to the soup, cook further 5 minutes. Season with salt and pepper to taste.\n3. Divide asparagus into serving bowls, add the soup and top with shredded chicken. \n4. Serve and enjoy.\n",
      "Ingredient Type": "Chicken",
      "Meal Type" : "Lunch, Dinner",
      "Food Type" : "Soup",
      "No. of Servings" : "4",
      "Calorie Budget" : ">200 calories",
      "Nutritional Information" : "Energy - 203 calories\nFat - 7 g\nCarbohydrates - 7 g\nProtein - 27 g\nSodium - 380 mg"
    },
    {
      "Recipe Name" : "Chicken and Vegetable Soup",
      "Ingredients" : "1 Tbsp. olive oil\n1 medium brown onion, chopped\n2 cloves garlic, minced \n12 oz. chicken breast fillet, diced\n1 cup cauliflower florets \n1 medium carrot, peeled, chopped\n2 medium celery stalks, diced\n2 Tbsp. fresh thyme, chopped\n6 cups water        \n¼ cup fresh parsley, chopped\nsalt and freshly ground black pepper, to taste\n",
      "Method" : "1. Heat oil in a large saucepan over medium heat. Stir-fry onion and garlic until fragrant. \n2. Add chicken and cook stirring for 5 minutes.\n3. Add cauliflower, carrot, celery, thyme, and water. Cover with lid. Cook for 20 minutes or until chicken and vegetables are tender. Season with salt and pepper to taste. Remove from heat\n4. Ladle in serving bowls. Sprinkle with chopped parsley.\n5. Serve and enjoy.\n",
      "Ingredient Type": "Chicken",
      "Meal Type" : "Lunch, Dinner",
      "Food Type" : "Soup",
      "No. of Servings" : "4",
      "Calorie Budget" : ">200 calories",
      "Nutritional Information" : "Energy - 224 calories\nFat - 10 g\nCarbohydrates - 7 g\nProtein - 26 g\nSodium - 360 mg"
    },
    {
      "Recipe Name" : "Chicken Noodle Soup",
      "Ingredients" : "2 Tbsp. olive oil \n1 medium red onion, sliced\n2 cloves garlic, minced\n12 oz. cooked chicken breast fillet, shredded\n6 oz. dry pasta (tagliatelle or macaroni)\n4 cups chicken stock, home-prepared, unsalted\n4 cups water\n1 Tbsp. rosemary, chopped\n1 Tbsp. thyme, chopped\n",
      "Method" : "1. Heat oil in a large saucepan over medium-high heat. Stir-fry onion and garlic until aromatic. \n2. Add the chicken, stock, water, rosemary, and thyme. Bring to a boil. \n4. Add the pasta and cook further 10-12 minutes. Stirring occasionally. Season with salt and pepper to taste. Remove from heat.\n3. Ladle in individual soup bowls. \n4. Serve and enjoy.\n",
      "Ingredient Type": "Chicken",
      "Meal Type" : "Lunch, Dinner",
      "Food Type" : "Soup",
      "No. of Servings" : "6",
      "Calorie Budget" : ">200 calories",
      "Nutritional Information" : "Energy - 285 calories\nFat - 10 g\nCarbohydrates - 26 g\nProtein - 22 g\nSodium - 446 mg"
    },
    {
      "Recipe Name" : "Baked Chicken Nuggets",
      "Ingredients" : "4 skinless, boneless chicken breast halves, cut into bite sized pieces (nugget-style)\n½ tsp. paprika\n¼ tsp. Kosher salt\n1 cup all-purpose flour\n1 Tbsp. garlic powder\n1 Tbsp. freshly ground black pepper\n2 whole eggs, beaten\ncooking oil spray\n",
      "Method" : "1. Preheat oven to 400 F.\n2. Season chicken with paprika and salt. Rub evenly on all sides. Set aside.\n3. Combine the flour, garlic powder, and pepper in a medium bowl. \n4. Dip the chicken pieces one at a time into the beaten eggs before turning into the flour mixture to coat and then shake off excess flour. \n5. Arrange the coated chicken pieces onto a baking sheet in a single layer until all the chicken has been coated. Spray with oil.\n6. Bake in the preheated oven for about 25-30 minutes or until golden brown and chicken is cooked through, turning half-way through cooking.\n7. Transfer to a serving platter.\n8. Serve with your choice of dip and enjoy.\n",
      "Ingredient Type": "Chicken",
      "Meal Type" : "Lunch, Dinner",
      "Food Type" : "Main Dish",
      "No. of Servings" : "6",
      "Calorie Budget" : ">200 calories",
      "Nutritional Information" : "Energy - 236 calories\nFat - 9 g\nCarbohydrates - 13 g\nProtein - 27 g\nSodium - 295 mg"
    },
    {
      "Recipe Name" : "Chicken Liver and Pepper Stir Fry",
      "Ingredients" : "1 1/2 lbs. chicken (cut into small pieces)\n2 Tbsp. dark soy sauce\n1/4 cup fresh lemon juice\n1/4 tsp. freshly ground black pepper\n2 Tbsp. olive oil\n1 large red onion (sliced)\n2 cloves garlic (minced) \n1 medium yellow pepper (deseeded and sliced)\n1 medium red bell pepper (deseeded and sliced)\n1 Tbsp. Worcestershire sauce\nsalt and freshly ground black pepper \n",
      "Method" : "1. Combine the chicken liver, soy sauce, and lemon juice in a medium bowl. Mix well. Season with black pepper.\n2. Heat olive oil in a large skillet or wok over medium heat. Stir-fry the red onion and garlic for 3 minutes.\n3. Add the chicken liver and cook for 7-8 minutes, stirring often.\n4. Add the bell peppers and Worcestershire sauce. Cook, stirring occasionally for another 7-8 minutes. Remove from heat. Season with salt and pepper, to taste.\n5. Transfer to a serving dish.\n6. Serve and enjoy.\n",
      "Ingredient Type": "Chicken",
      "Meal Type" : "Lunch, Dinner",
      "Food Type" : "Main Dish",
      "No. of Servings" : "6",
      "Calorie Budget" : ">200 calories",
      "Nutritional Information" : "Energy - 261 calories\nFat - 12 g\nCarbohydrates - 7 g\nProtein - 29 g\nSodium - 410 mg"
    },
    {
      "Recipe Name" : "Garlic Chicken and Asparagus Stir Fry",
      "Ingredients" : "2 Tbsp. olive oil\n2 Tbsp. garlic (chopped)\n1 lb. chicken breast fillet (cut into strips)\n1 lb. asparagus (trimmed and cut into 1-1/2 inch pieces)\n2 Tbsp. light soy sauce\n2 tsp. Worcestershire sauce\n1/2 tsp. garlic powder\n1/2 tsp. ginger powder\nsalt and freshly ground black pepper\ntoasted garlic (for topping)\n",
      "Method" : "1. Heat olive oil in a wok or skillet over medium heat. Stir-fry garlic for 3 minutes or until toasted and golden brown. Transfer to a small plate or bowl. Set aside.\n2. In the same wok, cook chicken over medium-high heat for 7-8 minutes, stirring often.\n3. Add the asparagus, soy sauce, Worcestershire sauce, ginger powder, and garlic powder. Cook further 8-10 minutes, stirring occasionally. Season with salt and pepper to taste. Remove from heat.\n4. Transfer to a serving platter. Sprinkle with reserved toasted garlic.\n5. Serve and enjoy.\n",
      "Ingredient Type": "Chicken",
      "Meal Type" : "Lunch, Dinner",
      "Food Type" : "Main Dish",
      "No. of Servings" : "6",
      "Calorie Budget" : ">200 calories",
      "Nutritional Information" : "Energy - 209 calories\nFat - 10 g\nCarbohydrates - 5 g\nProtein - 24 g\nSodium - 483 mg"
    },
    {
      "Recipe Name" : "Stir Fried Chicken with Black Bean and Chili Sauce",
      "Ingredients" : "2 Tbsp. peanut oil\n1 medium white onion (chopped)\n2 cloves garlic\n1 lb. chicken breast fillet (cut into strips)\n1/4 cup canned black beans\n2 Tbsp. soy sauce\n2 Tbsp. sweet chili sauce\n1/2 tsp. ginger powder\n2 Tbsp. cilantro (chopped)\n2 Tbsp. toasted sesame seeds \nsalt and freshly ground black pepper\n",
      "Method" : "1. Heat peanut oil in a wok or skillet over medium heat. Stir-fry onion and garlic for 3 minutes.\n2. Add the chicken, black beans, soy sauce, sweet chili sauce, and ginger powder. Cook for 10 minutes, stirring often. \n3. Add cilantro and cook for another 2 to 3 minutes. Season with salt and pepper to taste. Remove from heat.\n4. Transfer to a serving dish. Sprinkle with toasted sesame seeds.\n5. Serve and enjoy.\n",
      "Ingredient Type": "Chicken",
      "Meal Type" : "Lunch, Dinner",
      "Food Type" : "Main Dish",
      "No. of Servings" : "6",
      "Calorie Budget" : ">200 calories",
      "Nutritional Information" : "Energy - 250 calories\nFat - 12 g\nCarbohydrates - 10 g\nProtein - 25 g\nSodium - 504 mg"
    },
    {
      "Recipe Name" : "Chicken Zucchini and Eggplant Stir Fry",
      "Ingredients" : "3 Tbsp. olive oil\n1 medium red onion (chopped)\n1 tsp. garlic (minced)\n2 medium tomatoes (diced))\n1 lb. chicken breast fillet (cut into 1-inch cubes)\n1 medium zucchini (diced)\n1 medium eggplant (diced)\n2/3 cup chicken stock (reduced-sodium)\nsalt and freshly ground black pepper\n",
      "Method" : "1. Heat 1 tablespoon oil in a large skillet or wok over medium-high heat. Stir-fry chicken for 7 to 8 minutes or until browned. Transfer to a clean plate and cover to keep warm. Set aside.\n2. Heat remaining oil in the same skillet. Stir-fry onion and garlic for 3 minutes.\n3. Add the tomatoes, zucchini, and eggplant. Cook for 8 minutes, stirring often.\n4. Return chicken into the skillet and add the chicken stock. Cook for another 5 to 7 minutes, stirring occasionally. Season with salt and pepper to taste. \n5. Transfer to a serving dish.\n6. Serve and enjoy.\n",
      "Ingredient Type": "Chicken",
      "Meal Type" : "Lunch, Dinner",
      "Food Type" : "Main Dish",
      "No. of Servings" : "6",
      "Calorie Budget" : ">200 calories",
      "Nutritional Information" : "Energy - 244 calories\nFat - 13 g\nCarbohydrates - 9 g\nProtein - 24 g\nSodium - 274 mg"
    },
    {
      "Recipe Name" : "Chicken and Vegetable Stir Fry with Cashews",
      "Ingredients" : "2 Tbsp. olive oil\n1 medium onion (thinly sliced)\n2 cloves garlic (minced)\n1 lb. chicken breast fillet (cut into thin strips)\n1 medium red bell pepper (thinly sliced)\n1 medium yellow bell pepper (thinly sliced)\n2 leeks (thinly sliced)\n2 medium carrot (thinly sliced)\n2 stalks celery (diced)\n2 cups mungbean sprouts\n1/2 cup holy basil (leaves separated)\n2 Tbsp. dark soy sauce\n2 Tbsp. rice wine vinegar\n1/4 cup dry roasted cashew nuts (coarsely chopped)\nsalt and freshly ground black pepper to taste\n",
      "Method" : "1. Heat vegetable oil in a large skillet or wok over medium heat. Stir-fry the onion and garlic for 3 minutes.\n2. Add the chicken strips. Cook for 7-8 minutes, stirring often.\n3. Add the bell peppers, leeks, carrots, and celery. Cook for 7 minutes.\n4. Add the mungbean sprouts and holy basil leaves. Cook further 3 minutes, stirring often. Season with salt and pepper, to taste.\n5. Transfer to a serving dish. Sprinkle with chopped cashew nuts.\n6. Serve and enjoy.\n",
      "Ingredient Type": "Chicken",
      "Meal Type" : "Lunch, Dinner",
      "Food Type" : "Main Dish",
      "No. of Servings" : "6",
      "Calorie Budget" : ">200 calories",
      "Nutritional Information" : "Energy - 288 calories\nFat - 13 g\nCarbohydrates - 22 g\nProtein - 27 g\nSodium - 461 mg"
    },
    {
      "Recipe Name" : "Chicken and Vegetable Stir Fry in Chili Garlic Sauce",
      "Ingredients" : "2 Tbsp. olive oil\n1 large white onion (sliced)\n1 tsp. garlic (minced)\n1 tsp. chili flakes\n1/2 tsp. cumin (ground)\n2 lbs. chicken breast fillet (cut into strips)\n1 medium zucchini (thinly sliced)\n1 medium red bell pepper (deseeded and cut into 1-inch pieces)\n1 medium green bell pepper (deseeded and cut into 1-inch pieces)\n2 Tbsp. butter\n1/4 cup tomato paste\n1/4 cup ketchup\nsalt and freshly ground black pepper \n",
      "Method" : "1. In a wok, heat vegetable oil over medium-high heat. Stir-fry white onion and garlic for 3 minutes. Add the chili flakes and cumin. Cook, stirring for another 1 minute. \n2. Add the chicken breast. Cook, stirring often for about 7 minutes.\n3. Add the zucchini and bell peppers. Cook for 7 minutes, stirring occasionally.\n4. Stir in butter, tomato paste, and ketchup. Season with salt and pepper to taste. Cook further 5 minutes.\n5. Transfer to a serving dish.\n6. Serve and enjoy.\n",
      "Ingredient Type": "Chicken",
      "Meal Type" : "Lunch, Dinner",
      "Food Type" : "Main Dish",
      "No. of Servings" : "6",
      "Calorie Budget" : ">200 calories",
      "Nutritional Information" : "Energy - 265 calories\nFat - 14 g\nCarbohydrates - 11 g\nProtein - 24 g\nSodium - 321 mg"
    },
    {
      "Recipe Name" : "Chicken Pepper and Bean Sprout Stir Fry on Lettuce Wrap",
      "Ingredients" : "2 Tbsp. peanut oil\n2 shallots (chopped)\n1 tsp. garlic (minced) \n1 lb. chicken breast fillet (cut into thin strips)\n1 medium green bell pepper (deseeded and cut into strips)\n2 Tbsp. Tamari or regular soy sauce\n2 Tbsp. rice wine vinegar\n2 cups mungbean sprouts\n1 head iceberg lettuce (leaves separated)\nsalt and freshly ground black pepper to taste \n",
      "Method" : "1. In a wok or large skillet, heat peanut oil over medium-high heat. Stir-fry shallots and garlic for 3 minutes or until fragrant.\n2. Add the chicken strips and cook for 7 minutes or until browned, stirring frequently.\n3. Add the bell pepper, Tamari, and rice wine vinegar. Cook for 5 minutes, stirring occasionally. \n4. Add the mungbean sprouts. Cook further 3-5 minutes. Season with salt and pepper, to taste. \n5. Place 2 tablespoons of stir-fried chicken and vegetable mixture onto each lettuce leaf until everything has been used up.\n6. Serve in a serving dish and enjoy.\n",
      "Ingredient Type": "Chicken",
      "Meal Type" : "Lunch, Dinner",
      "Food Type" : "Main Dish",
      "No. of Servings" : "6",
      "Calorie Budget" : ">200 calories",
      "Nutritional Information" : "Energy - 225 calories\nFat - 11 g\nCarbohydrates - 7 g\nProtein - 25 g\nSodium - 370 mg"
    },
    {
      "Recipe Name" : "Cumin Spiced Chicken Meatballs",
      "Ingredients" : "1 lb. ground chicken\n2 large eggs (lightly beaten)\n1/2 cup dry bread crumbs\n1/4 cup cream cheese\n1/2 Tbsp. garlic powder\n1 tsp. cumin (ground)\n1/2 tsp. Kosher salt\n1/2 tsp. freshly ground black pepper\ncooking oil spray\nfresh parsley\n",
      "Method" : "1. Preheat your oven to 450 F. Slightly grease a baking sheet with oil spray.\n2. Combine the ground chicken, beaten eggs, bread crumbs, cream cheese, garlic powder, cumin, salt, and pepper in a large bowl. Mix well. \n3. Take about 1 tablespoon mixture into small meatballs. Put them on prepared baking sheet. Lightly spray with oil.\n4. Bake in the preheated oven for about 15-20 minutes or until juices run clear.\n5. Transfer to a serving dish. Garnish with fresh parsley.\n6. Serve immediately and enjoy.\n",
      "Ingredient Type": "Chicken",
      "Meal Type" : "Lunch, Dinner",
      "Food Type" : "Main Dish",
      "No. of Servings" : "6",
      "Calorie Budget" : ">200 calories",
      "Nutritional Information" : "Energy - 269 calories\nFat - 14 g\nCarbohydrates - 8 g\nProtein - 25 g\nSodium - 463 mg"
    },

    {
      "Recipe Name" : "Honey Mustard Chicken Roast",
      "Ingredients" : "1 whole chicken\nsalt and pepper to taste\n1/3 cup honey\n1/4 cup Dijon mustard\n2 Tbsp. regular mustard \n2 Tbsp. lemon juice\n1 tsp. dried rosemary\n1/2 tsp. dried parsley\n1/4 tsp. paprika\n3 cloves garlic (minced)\ncooking oil spray\n",
      "Method" : "1. Preheat your oven to 350 F. Lightly grease a 9x13-inch baking dish with oil spray.\n2. Season chicken with salt and pepper to taste. Set aside.\n3. In a small bowl, combine the honey, Dijon mustard, regular mustard, lemon juice, rosemary, parsley, paprika, and garlic. Mix well. Pour half of the mixture over the chicken, and brush all sides to coat.\n4. Bake in the preheated oven for 30 minutes. Turn chicken over and brush with the remaining honey mustard mixture. Bake further 10 to 15 minutes, or until chicken is golden brown and juices run clear. Remove from heat and let stand for 10 minutes to cool before slicing.\n5. Serve and enjoy.\n",
      "Ingredient Type": "Chicken",
      "Meal Type" : "Lunch, Dinner",
      "Food Type" : "Main Dish",
      "No. of Servings" : "6",
      "Calorie Budget" : ">200 calories",
      "Nutritional Information" : "Energy - 255 calories\nFat - 8 g\nCarbohydrates - 11 g\nProtein - 34 g\nSodium - 325 mg"
    },
    {
      "Recipe Name" : "Beef and Pepper Stir Fry with Cilantro",
      "Ingredients" : "1 1/2 lbs. sirloin beef (cut into thin strips)\n2 Tbsp. dark soy sauce\n1/4 tsp. freshly ground black pepper\n2 Tbsp. peanut oil\n1 medium onion (thinly sliced)\n2 cloves garlic (minced) \n1 medium red bell pepper\n1 medium green bell pepper\n1 medium yellow pepper\n1/4 cup cilantro (chopped)\n1/4 cup oyster sauce\nsalt and freshly ground black pepper to taste\n",
      "Method" : "1. Combine the beef and soy sauce in a medium bowl. Mix well. Season with pepper.\n2. Heat peanut oil in a large skillet or wok over medium heat. Stir-fry the onion and garlic for 1-2 minutes.\n3. Add the beef strips and cook for 5 minutes, stirring often.\n4. Add the bell peppers, cilantro, and oyster sauce. Cook, stirring occasionally for about 7-10 minutes. Remove from heat. Season with salt and pepper, to taste.\n5. Transfer to a serving dish.\n6. Serve and enjoy.\n",
      "Ingredient Type": "Beef",
      "Meal Type" : "Lunch, Dinner",
      "Food Type" : "Main Dish",
      "No. of Servings" : "6",
      "Calorie Budget" : ">200 calories",
      "Nutritional Information" : "Energy - 276 calories\nFat - 12 g\nCarbohydrates - 6 g\nProtein - 35 g\nSodium - 451 mg"
    },
    {
      "Recipe Name" : "Spicy Beef and Broccoli Wok Stir-Fry with Sesame",
      "Ingredients" : "2 Tbsp. peanut oil (divided)\n1 lb. sirloin beef (thinly sliced)\n1 medium onion (thinly sliced)\n1 tsp. garlic (minced)\n1 head broccoli (cut into small florets)\n1/2 cup beef stock (unsalted)\n2 Tbsp. soy sauce\n1 Tbsp. chili garlic paste\n1 tsp. sesame oil\nsalt and freshly ground black pepper\ntoasted sesame seeds\n",
      "Method" : "1. Heat 1 tablespoon oil in a wok over medium-high heat. Cook the beef for 7 to 10 minutes or until browned, stirring often. Transfer to a plate and cover to keep warm.\n2. Heat remaining vegetable oil in the same wok. Stir-fry onion and garlic for 3 minutes.\n3. Add the broccoli, beef stock, soy sauce, and chili garlic paste. Cook, stirring occasionally for 8 to 10 minutes or until broccoli is crisp-tender. \n4. Add the beef and cook for another 2 to 3 minutes. Season with salt and pepper to taste. Stir in sesame oil. Remove from heat.\n5. Transfer to a serving dish. Sprinkle with sesame seeds.\n6. Serve and enjoy.\n",
      "Ingredient Type": "Beef",
      "Meal Type" : "Lunch, Dinner",
      "Food Type" : "Main Dish",
      "No. of Servings" : "6",
      "Calorie Budget" : ">200 calories",
      "Nutritional Information" : "Energy - 288 calories\nFat - 12 g\nCarbohydrates - 8 g\nProtein - 35 g\nSodium - 423 mg"
    },
    {
      "Recipe Name" : "Marinated Beef Tips and Veggie Stir Fry",
      "Ingredients" : "1 lb. beef sirloin (cut into thin strips)\n2 Tbsp. Tamari or regular soy sauce\n2 Tbsp. rice wine vinegar\n2 tsp. brown sugar\n1/4 tsp. freshly ground black pepper\n2 Tbsp. peanut oil (divided)\n1 medium onion (chopped)\n3 large cloves garlic (minced)\n1 medium carrot (thinly sliced)\n8 oz. green beans (trimmed, cut diagonally to 1 ½-inch pieces)\n1 small head broccoli (cut into small florets) \n1/2 cup beef stock\n2 Tbsp. oyster sauce\nsalt and freshly ground black pepper\n",
      "Method" : "1. Combine beef, Tamari, rice wine vinegar, brown sugar, and pepper in a non-reactive bowl. Cover and refrigerate for at least an hour. \n2. Heat 1 tablespoon oil in a wok over medium-high heat. Cook the beef strips until browned, about 7 minutes. Transfer to a plate and set aside.\n3. In the same wok, heat remaining oil and stir-fry onion and garlic for 3 minutes.\n4. Add the carrots, green beans, broccoli, beef stock, and oyster sauce. Cook, stirring occasionally for 10 minutes or until vegetables are crisp-tender.\n5. Return the beef and cook further 3 minutes. Season with salt and pepper to taste.\n6. Transfer to a plate.\n7. Serve immediately and enjoy.\n",
      "Ingredient Type": "Beef",
      "Meal Type" : "Lunch, Dinner",
      "Food Type" : "Main Dish",
      "No. of Servings" : "6",
      "Calorie Budget" : ">300 calories",
      "Nutritional Information" : "Energy - 317 calories\nFat - 12 g\nCarbohydrates - 13 g\nProtein - 38 g\nSodium - 455 mg"
    },
    {
      "Recipe Name" : "Bourguinon Beef Stew",
      "Ingredients" : "2 lbs. beef sirloin, cubed\n¾ cup all-purpose flour\n2 Tbsp. butter \n1 large white onion, sliced\n2 cloves garlic, minced\n1 tsp. caraway seed, ground\n1 tsp. coriander seed, ground\n1 cup burgundy wine\n2 bay leaves\n1 cup beef stock\n1 large carrot, thinly sliced\n2 celery stalks, diced\nsalt and freshly ground black pepper\n",
      "Method" : "1. Lightly season the beef with salt and pepper. Dredge with flour.\n2. In a large frying pan or skillet, cook beef in butter for 3-5 minutes or until browned over medium-high heat. Transfer beef in a plate.\n3. In the same pan, stir-fry onion and garlic for 1 minute or until onion becomes translucent. Add the caraway and coriander, cook further 30 seconds. \n4. Add the burgundy, cook for 5 minutes. Transfer mixture in a slow cooker.\n5. Add the beef, bay leaves, and stock. Cover and cook for 4 ½ hours. Stir in the carrot and celery during the last 1 hour of cooking time. Season with salt and pepper, to taste.\n6. Transfer in a serving dish.\n7. Serve and enjoy.\n",
      "Ingredient Type": "Beef",
      "Meal Type" : "Lunch, Dinner",
      "Food Type" : "Main Dish",
      "No. of Servings" : "8",
      "Calorie Budget" : ">300 calories",
      "Nutritional Information" : "Energy - 319 calories\nFat - 11 g\nCarbohydrates - 13 g\nProtein - 36 g\nSodium - 379 mg"
    },
    {
      "Recipe Name" : "Chili Beef Stew with Yogurt",
      "Ingredients" : "2 Tbsp. olive oil\n2 lbs. beef chuck steak, cubed\n1 oz. dry onion soup mix\n1 cup boiling water\n1 tsp. cumin, ground\n1 tsp. cayenne pepper\n1 cup tomato sauce\n1 Tbsp. Worcestershire sauce\n½ tsp. red hot chili, chopped\n6 oz. Greek yogurt\nsalt and freshly ground black pepper\n",
      "Method" : "1. Lightly season beef with salt and pepper. \n2. Heat oil in large frying pan. Cook beef until browned. Remove from heat.\n3. Mix together onion soup mix and boiling water until dissolved.\n4. In a slow cooker, combine the beef, diluted onion soup mix, cumin, cayenne pepper, and tomato sauce. Cover and cook on low for 8 hours. Stir in the Worcestershire sauce, chili, and yogurt during the last 1 hour of cooking time. Season with salt and pepper, to taste. Remove from heat.\n5. Transfer in a serving dish.\n6. Serve and enjoy.\n",
      "Ingredient Type": "Beef",
      "Meal Type" : "Lunch, Dinner",
      "Food Type" : "Main Dish",
      "No. of Servings" : "8",
      "Calorie Budget" : ">200 calories",
      "Nutritional Information" : "Energy - 283 calories\nFat - 11 g\nCarbohydrates - 6 g\nProtein - 37 g\nSodium - 524 mg"
    },
    {
      "Recipe Name" : "Spicy Georgian Beef Stew Recipe",
      "Ingredients" : "2 Tbsp. butter\n1 large onion, chopped\n2 cloves garlic, minced \n2 tsp. paprika\n2 tsp. cayenne pepper\n1 tsp. coriander seed, ground\n2 lbs. beef sirloin, cut into thick strips\n1 cup dry red wine\n1 cup tomato puree\nsalt and freshly ground black pepper\nchopped fresh coriander, for garnish\n",
      "Method" : "1. In a skillet, stir-fry onion and garlic in butter for 1 minute or until aromatic over medium heat. Add the paprika, cayenne pepper, and coriander seed. Cook for 1 minute.\n2. Add the beef, cook for 3-5 minutes or until browned. \n3. Stir in the wine and cook further 5 minutes. Transfer mixture in a slow cooker.\n4. Add the tomato puree and beef stock. Cover and cook on high for 4 hours. Season with salt and pepper, to taste.\n5. Transfer in a serving dish. Sprinkle with fresh coriander.\n6. Serve and enjoy.\n",
      "Ingredient Type": "Beef",
      "Meal Type" : "Lunch, Dinner",
      "Food Type" : "Main Dish",
      "No. of Servings" : "8",
      "Calorie Budget" : ">200 calories",
      "Nutritional Information" : "Energy - 288 calories\nFat - 10 g\nCarbohydrates - 6 g\nProtein - 35 g\nSodium - 455 mg"
    },
    {
      "Recipe Name" : "Grilled Cajun Salmon",
      "Ingredients" : "4 (4 oz.) salmon fillet, with skin\n2 Tbsp. butter, melted\n2 tsp. onion powder\n½ tsp. dried thyme\n½ tsp. cayenne pepper\n½ tsp. cumin, ground\n½ tsp. coriander seed, ground\n¼ tsp. sea salt\n¼ tsp. freshly ground black pepper\n\n",
      "Method" : "1. Mix onion powder, dried thyme, cayenne pepper, cumin, coriander, salt, and pepper in a small bowl.\n2. Brush salmon with melted butter then rub with spice mixture, covering all sides.\n3. Heat grill or griddle over medium-high heat and cook salmon for about 3-4 minutes on each side or until cooked to your desired doneness.\n4. Serve with lemon wedges and tossed greens, if desired. \n5. Enjoy.\n\n",
      "Ingredient Type": "Fish",
      "Meal Type" : "Lunch, Dinner",
      "Food Type" : "Main Dish",
      "No. of Servings" : "4",
      "Calorie Budget" : ">200 calories",
      "Nutritional Information" : "Energy - 207 calories\nFat - 12 g\nCarbohydrates - 1 g\nProtein - 22 g\nSodium - 209 mg\n"
    },
    {
      "Recipe Name" : "Glazed Salmon in Sweet Chili and Lime",
      "Ingredients" : "4 (4 oz.) salmon fillet, boneless\n2 Tbsp. lime juice\n1 Tbsp. lime zest\n2 Tbsp. soy sauce\n¼ cup sweet-chili sauce\n",
      "Method" : "1. Preheat grill to high.\n2. Mix together lime juice, zest, soy sauce, and sweet chili sauce in a small glass bowl. Reserve half of the mixture. Add salmon and turn to coat all sides.\n3. Grill salmon for about 3-4 minutes on each side or until just cooked. Brushing with reserved sauce occasionally. \n4. Serve with steamed rice and mixed vegetables, if desired.\n5. Enjoy.\n",
      "Ingredient Type": "Fish",
      "Meal Type" : "Lunch, Dinner",
      "Food Type" : "Main Dish",
      "No. of Servings" : "4",
      "Calorie Budget" : ">100 calories",
      "Nutritional Information" : "Energy - 187 calories\nFat - 7 g\nCarbohydrates - 8 g\nProtein - 23 g\nSodium - 339 mg"
    },
    {
      "Recipe Name" : "Easy Salmon Fritters",
      "Ingredients" : "16 oz. canned pink salmon, drained and flaked\n2 medium eggs, beaten\n3/4 cup breadcrumbs\n1/4 cup all-purpose flour\n2 Tbsp. cilantro, chopped\n4 green onions, chopped\n2 Tbsp. olive oil\nsalt and pepper, to taste",
      "Method" : "1. Mix together the salmon, egg, breadcrumbs, flour, cilantro, and green onions in a large bowl. Stir to combine all ingredients. Season with salt and pepper, to taste.\n2. Put oil in a non-stick frying pan over medium high heat. Spoon ¼ cup of salmon mixture into pan and by using the spatula, slightly press the patty to form round fritter. Repeat to make more fritters. Cook for about 2-3 minutes on each side or until golden and cooked through. Transfer to a plate with paper towel. Repeat with salmon mixture to make 8 fritters.\n3. Serve fritters with steamed rice and mixed veggies, if desired. \n4. Enjoy.\n",
      "Ingredient Type": "Fish",
      "Meal Type" : "Lunch, Dinner",
      "Food Type" : "Main Dish",
      "No. of Servings" : "8",
      "Calorie Budget" : ">100 calories",
      "Nutritional Information" : "Energy - 192 calories\nFat - 10 g\nCarbohydrates - 11 g\nProtein - 14 g\nSodium - 190 mg"
    },
    {
      "Recipe Name" : "Roasted Salmon and Asparagus with Pesto",
      "Ingredients" : "4 (4 oz.) fresh salmon steak        \n¼ cup basil pesto sauce\n1 Tbsp. olive oil\n1 Tbsp. lime zest, finely grated\n1 bunch asparagus, trimmed\nsalt and pepper, to taste\n",
      "Method" : "1. Preheat oven at 200 C or 400 F.\n2. In a small bowl, combine pesto, olive oil, and lime zest.\n3. Arrange asparagus in a baking dish. Top with salmon and season with salt and pepper. Spoon pesto mixture and spread evenly.\n4. Bake for about 12-15 minutes or until cooked through.\n5. Serve immediately and enjoy.\n",
      "Ingredient Type": "Fish",
      "Meal Type" : "Lunch, Dinner",
      "Food Type" : "Main Dish",
      "No. of Servings" : "4",
      "Calorie Budget" : ">200 calories",
      "Nutritional Information" : "Energy - 261 calories\nFat - 17 g\nCarbohydrates - 4 g\nProtein - 25 g\nSodium - 294 mg"
    },
    {
      "Recipe Name" : "Spicy Salmon in Honey-Ginger Glaze",
      "Ingredients" : "4 (4 oz.) fresh salmon fillets\n1 tsp. cayenne pepper\n½ tsp. cumin, ground\n2 Tbsp. butter\n1 Tbsp. fresh ginger, finely grated\n¼ cup rice vinegar\n2 Tbsp. honey\n1 tsp. soy sauce\nsalt and pepper, to taste\n",
      "Method" : "1. Rub salmon fillets with cayenne pepper and cumin. Season with salt and pepper. \n2. Heat butter in a non-stick frying pan over medium heat. Cook salmon for 3-4 minutes on each side or until golden and cooked through. Transfer in a clean plate and cover to keep warm. \n3. Using the same pan, stir-fry ginger until fragrant. Add vinegar, honey, and soy sauce. Cook for 2-3 minutes. Season with pepper, to taste. Remove from heat.\n4. Place salmon in a serving dish and spoon honey-ginger glaze over salmon.\n5. Serve and enjoy.\n",
      "Ingredient Type": "Fish",
      "Meal Type" : "Lunch, Dinner",
      "Food Type" : "Main Dish",
      "No. of Servings" : "4",
      "Calorie Budget" : ">200 calories",
      "Nutritional Information" : "Energy - 251 calories\nFat - 13 g\nCarbohydrates - 10 g\nProtein - 23 g\nSodium - 284 mg"
    },
    {
      "Recipe Name" : "Delicious Broiled Salmon",
      "Ingredients" : "4 (4 oz.) salmon fillets\n¼ cup olive oil\n2 Tbsp. soy sauce\n2 Tbsp. lemon juice\n1 tsp. lemon pepper\n2 cloves garlic, crushed\n1 Tbsp. fresh rosemary, chopped\nsalt and pepper, to taste\n",
      "Method" : "1. Combine oil, soy sauce, lemon juice, lemon pepper, garlic, and rosemary in a glass baking dish. Mix well. Place salmon flesh-side down, cover and allow to marinate in the refrigerator for at least 30 minutes.\n2. Preheat broiler over medium-high.\n3. Cook salmon under the broiler until golden, for about 10 minutes. \n4. Serve and enjoy.\n",
      "Ingredient Type": "Fish",
      "Meal Type" : "Lunch, Dinner",
      "Food Type" : "Main Dish",
      "No. of Servings" : "4",
      "Calorie Budget" : ">200 calories",
      "Nutritional Information" : "Energy - 223 calories\nFat - 14 g\nCarbohydrates - 2 g\nProtein - 23 g\nSodium - 403 mg"
    },
    {
      "Recipe Name" : "Salmon Kebabs with Lemon and Rosemary",
      "Ingredients" : "1 lb. salmon fillet, cubed\n2 Tbsp. olive oil\n2 Tbsp. lemon juice\n1 Tbsp. lemon zest, finely grated\n1 Tbsp. fresh rosemary, chopped\nsalt and pepper, to taste\nwooden skewers\n",
      "Method" : "1. Preheat grill to high.\n2. Whisk together oil, lemon juice, zest, and rosemary in a mixing bowl. Add salmon and turn to coat all sides. Season with salt and pepper.\n3. Thread salmon onto the skewers. Grill for about 3-4 minutes on each side or until just cooked. \n4. Serve with garden fresh salad, if desired.\n5. Enjoy.\n",
      "Ingredient Type": "Fish",
      "Meal Type" : "Lunch, Dinner",
      "Food Type" : "Main Dish",
      "No. of Servings" : "4",
      "Calorie Budget" : ">200 calories",
      "Nutritional Information" : "Energy - 216 calories\nFat - 14 g\nCarbohydrates - 1 g\nProtein - 22 g\nSodium - 223 mg"
    },
    {
      "Recipe Name" : "Asian Baked Salmon",
      "Ingredients" : "4 (4 oz.) salmon fillet\n2 Tbsp. oyster sauce\n1 Tbsp. hoisin sauce\n1 Tbsp. soy sauce\n1 Tbsp. lemon juice\n1 tbsp. peanut oil\n¼ tsp. freshly ground black pepper\n",
      "Method" : "1. Preheat oven at 200 C or 400 F.\n2. Whisk together oyster sauce, hoisin sauce, soy sauce, lemon juice, peanut oil, and ginger in a small bowl. \n3. Place salmon on a shallow baking dish and pour the sauce over fish, turn to coat all sides. Cover with foil.\n4. Bake salmon for about 20 minutes or until cooked through (remove foil halfway through cooking time).\n5. Serve salmon on rice, drizzle with some sauce from the baking dish. Garnish with lemon slices.\n6. Enjoy.\n",
      "Ingredient Type": "Fish",
      "Meal Type" : "Lunch, Dinner",
      "Food Type" : "Main Dish",
      "No. of Servings" : "4",
      "Calorie Budget" : ">100 calories",
      "Nutritional Information" : "Energy - 193 calories\nFat - 11 g\nCarbohydrates - 2 g\nProtein - 23 g\nSodium - 396 mg"
    },
    {
      "Recipe Name" : "Poached Salmon with Lemon",
      "Ingredients" : "4 (4 oz.) salmon fillet, skin on\n½ cup dry wine\n¼ cup lemon juice\n1 Tbsp. lemon zest\n2 pcs. bay leaves, dried\n½ tsp. whole black peppercorns\n4 cups water\nlemon slices, for garnish\nsalt and pepper, to taste\n",
      "Method" : "1. Simmer wine, lemon, lemon zest, bay leaves, peppercorn, and water in a large deep frying pan over medium heat. \n2. Add salmon, cook covered about 10 minutes or until just cooked through. Remove salmon using a slotted spoon. Season with salt and pepper, to taste.\n3. Serve with roasted vegetables or green salad, if desired\n4. Enjoy.\n",
      "Ingredient Type": "Fish",
      "Meal Type" : "Lunch, Dinner",
      "Food Type" : "Main Dish",
      "No. of Servings" : "4",
      "Calorie Budget" : ">100 calories",
      "Nutritional Information" : "Energy - 180 calories\nFat - 7 g\nCarbohydrates - 2 g\nProtein - 23 g\nSodium - 209 mg"
    },
    {
      "Recipe Name" : "Salmon and Cottage Cheese Patties with Chives",
      "Ingredients" : "16 oz. canned pink salmon, drained and flaked\n½ cup mashed potato\n½ cup cottage cheese\n½ cup breadcrumbs\n1 shallot, chopped\n1 egg lightly beaten\n2 Tbsp. fresh coriander, chopped\n2 Tbsp. olive oil\nsalt and pepper, to taste\n",
      "Method" : "1. Combine salmon, mashed potato, cottage cheese, breadcrumbs, shallot, egg, and coriander in a mixing bowl. Season with salt and pepper. Mix well. Spoon about 3 tablespoons mixture and form into patties.\n2. Heat oil in a non-stick frying pan over medium-high heat. Cook salmon patties 3-4 minutes on each side or until brown. \n3. Serve with green salad, if desired.\n4. Enjoy.\n\n",
      "Ingredient Type": "Fish",
      "Meal Type" : "Lunch, Dinner",
      "Food Type" : "Main Dish",
      "No. of Servings" : "6",
      "Calorie Budget" : ">200 calories",
      "Nutritional Information" : "Energy - 224 calories\nFat - 12 g\nCarbohydrates - 11 g\nProtein - 20 g\nSodium - 341 mg"
    },
    {
      "Recipe Name" : "Salmon and Veggie Burger Patties",
      "Ingredients" : "16 oz. canned pink salmon, drained and flaked\n1 medium carrot, finely chopped\n¼ cup green onion, chopped\n1 clove garlic, minced\n½ cup mashed potato\n½ cup breadcrumbs\n1 egg lightly beaten\n2 Tbsp. olive oil\nsalt and pepper, to taste\n",
      "Method" : "1. Combine salmon, carrot, green onion, garlic, mashed potato, breadcrumbs, and egg in a mixing bowl. Season with salt and pepper. Mix well. Spoon about 3 tablespoons mixture and form into patties.\n2. Heat oil in a non-stick frying pan over medium-high heat. Cook salmon patties 3-4 minutes on each side or until brown. \n3. Serve with burger bun and coleslaw, if desired.\n4. Enjoy.\n",
      "Ingredient Type": "Fish",
      "Meal Type" : "Lunch, Dinner",
      "Food Type" : "Main Dish",
      "No. of Servings" : "6",
      "Calorie Budget" : ">200 calories",
      "Nutritional Information" : "Energy - 212 calories\nFat - 11 g\nCarbohydrates - 11 g\nProtein - 17 g\nSodium - 272 mg"
    },
    {
      "Recipe Name" : "Easy Grilled Salmon Recipe",
      "Ingredients" : "4 (4 oz.) fresh salmon fillets\n¼ cup olive oil\n2 Tbsp. lemon juice\n½ tsp. garlic powder, to taste\n½ tsp. lemon pepper, to taste\n",
      "Method" : "1. In a glass baking dish, mix together oil, lemon juice, garlic powder, and lemon pepper. Place salmon flesh-side down. Cover and allow to marinate in the refrigerator for at least 30 minutes.\n2. Preheat grill or griddle on medium-high.\n3. Grill salmon 3-4 minutes on each side or until grill marks form and cooked through. \n4. Serve and enjoy.\n",
      "Ingredient Type": "Fish",
      "Meal Type" : "Lunch, Dinner",
      "Food Type" : "Main Dish",
      "No. of Servings" : "4",
      "Calorie Budget" : ">200 calories",
      "Nutritional Information" : "Energy - 214 calories\nFat - 14 g\nCarbohydrates - 1 g\nProtein - 22 g\nSodium - 211 mg"
    },
    {
      "Recipe Name" : "Spiced Salmon and Veggie Kebabs",
      "Ingredients" : "2 lbs. salmon fillet, cubed\n2 medium onion, quartered\n1 medium red bell pepper, cut into 1-inch pieces\n1 medium green bell pepper, cut into 1-inch pieces\n1 cup button mushrooms\n¼ cup olive oil\n2 Tbsp. lemon juice\n½ tsp. cumin, ground\n½ tsp. paprika\nsalt and pepper, to taste\nwooden skewers\n",
      "Method" : "1. Preheat grill to high.\n2. Whisk together oil, lemon juice, cumin, and paprika in a mixing bowl. Season with salt and pepper. Reserve half of the mixture. Add salmon and turn to coat all sides. Season with salt and pepper.\n3. Thread salmon alternately with vegetables onto the skewers. Grill for about 3-4 minutes on each side or until just cooked. Brushing with reserved oil mixture occasionally.\n4. Serve and enjoy.\n",
      "Ingredient Type": "Fish",
      "Meal Type" : "Lunch, Dinner",
      "Food Type" : "Main Dish",
      "No. of Servings" : "8",
      "Calorie Budget" : ">200 calories",
      "Nutritional Information" : "Energy - 228 calories\nFat - 13 g\nCarbohydrates - 5 g\nProtein - 23 g\nSodium - 201 mg"
    },
    {
      "Recipe Name" : "Asian Pan Fried Cod with Spring Onions",
      "Ingredients" : "4 (4 oz.) cod fillets\nsalt and ground black pepper to taste\n1 Tbsp. peanut oil\n2 Tbsp. unsalted butter\n2 Tbsp. lemon juice\n2 cloves garlic, chopped\n¼ cup spring onion\n",
      "Method" : "1. Season the cod fillets with salt and pepper on both sides. Set aside.\n2. Heat peanut oil in a non-stick pan over medium-high heat. Sear fillets for 2 minutes on each side or until browned. Transfer to a clean plate. Cover with foil to keep warm.\n3. Using the same pan, melt butter over medium-high heat. Stir-fry garlic until aromatic, about 1 minute. Stir in lemon juice and cook further 1 minute.\n4. Add the fish fillets and cook for 2 minutes on each side.\n5. Transfer to a serving platter. Drizzle with lemon-butter sauce from the pan. Sprinkle with spring onion.\n6. Serve immediately and enjoy.\n",
      "Ingredient Type": "Fish",
      "Meal Type" : "Lunch, Dinner",
      "Food Type" : "Main Dish",
      "No. of Servings" : "4",
      "Calorie Budget" : ">200 calories",
      "Nutritional Information" : "Energy - 206 calories\nFat - 10 g\nCarbohydrates - 1 g\nProtein - 26 g\nSodium - 279 mg"
    },
    {
      "Recipe Name" : "Fresh Seafood Ceviche",
      "Ingredients" : "¼ cup lime juice\n¼ cup lemon juice\n1 tsp. fresh ginger, finely grated\n1 lb. red snapper, diced\n½ lb. shrimp, cleaned and poached\n½ lb. squid, cleaned, cut into rings\n2 Tbsp. olive oil\n1 medium red onion, chopped\n1 medium tomato, chopped\n¼ cup fresh coriander, chopped\n2 jalapeños, thinly sliced\nsalt and freshly ground black pepper\n",
      "Method" : "1. In a large non-reactive (glass) bowl, whisk together lime juice, lemon juice, and ginger.\n2. Add the snapper, shrimp, and squid. Mix well. Season with salt and pepper, to taste. Cover and chill for at least 2 hours.\n3. Stir in olive oil, onion, tomato, coriander, and jalapeños. Cover and refrigerate until ready to serve.\n4. Enjoy.\n",
      "Ingredient Type": "Fish",
      "Meal Type" : "Lunch, Dinner",
      "Food Type" : "Main Dish",
      "No. of Servings" : "8",
      "Calorie Budget" : ">200 calories",
      "Nutritional Information" : "Energy - 175 calories\nFat - 6 g\nCarbohydrates - 4 g\nProtein - 26 g\nSodium - 191 mg"
    },
    {
      "Recipe Name" : "Tuna Pasta Salad with Olives",
      "Ingredients" : "3 cups fusilli pasta, cooked\n1 cup canned tuna flakes, drained\n2 medium ripe tomatoes, diced\n4 pcs. black olives, sliced\n4 pcs. green olives, sliced\n4 cups Romaine lettuce\n\nRed Wine and Dill Vinaigrette:\n½ cup olive oil\n3 Tbsp. red wine vinegar\n1 Tbsp. Dijon mustard\n1 tsp. fresh dill weed, finely chopped\nsalt and freshly ground black pepper\n",
      "Method" : "1. Mix together olive oil, red wine vinegar, Dijon mustard, and dill in a small glass bowl. Season with salt and pepper, to taste.\n2. Place the fusilli, tuna, tomato, olives, in a large salad bowl. Season with salt and pepper, to taste. Drizzle with prepared red wine vinaigrette. Toss to mix well.\n3. Arrange lettuce leaves to make bed on a serving platter. Top with tuna pasta salad. \n4. Serve and enjoy.\n",
      "Ingredient Type": "Fish",
      "Meal Type" : "Lunch, Dinner",
      "Food Type" : "Main Dish",
      "No. of Servings" : "4",
      "Calorie Budget" : ">300 calories",
      "Nutritional Information" : "Energy - 379 calories\nFat - 18 g\nCarbohydrates - 35 g\nProtein - 18 g\nSodium - 367 mg"
    },
    {
      "Recipe Name" : "Grilled Pink Salmon with Orange-Maple Glaze",
      "Ingredients" : "4 (4 oz.) salmon steaks\n1 Tbsp. olive oil\n1 garlic clove, minced\nsalt and freshly ground pepper\n2 Tbsp. butter, melted\n¼ cup fresh orange juice\n1 tsp. orange zest, finely grated\n2 Tbsp. maple syrup\n2 Tbsp. fresh parsley, chopped\n\n",
      "Method" : "1. Preheat grill on high.\n2. Combine oil and garlic in a small bowl. Brush mixture on salmon steaks. Season with salt and pepper, to taste. Set aside.\n3. In a small saucepan, whisk together the butter, orange juice, zest, and maple syrup. Cook for 1-2 minutes over medium-high heat.\n4. Grill the fish steaks for 4-5 minutes on each side. Brushing with orange-maple glaze occasionally. \n5. Transfer salmon to individual plates and sprinkle with fresh chopped parsley.\n6. Serve immediately and enjoy.\n",
      "Ingredient Type": "Fish",
      "Meal Type" : "Lunch, Dinner",
      "Food Type" : "Main Dish",
      "No. of Servings" : "4",
      "Calorie Budget" : ">200 calories",
      "Nutritional Information" : "Energy -272 calories\nFat - 16 g\nCarbohydrates - 11 g\nProtein -22 g\nSodium - 240 mg"
    },
    {
      "Recipe Name" : "Pan-Fried Fish Fillet with Cajun",
      "Ingredients" : "4 (4 oz.) cod fillets\n1 tsp. cajun seasoning\n2 Tbsp. butter\n",
      "Method" : "1. Rub fish fillets with Cajun seasoning. Let sit for 30 minutes.\n2. Melt butter in a non-stick frying pan over medium-high heat. Cook cod fillets for 5 minutes on each side or until golden brown.\n3. Serve immediately and enjoy.\n",
      "Ingredient Type": "Fish",
      "Meal Type" : "Lunch, Dinner",
      "Food Type" : "Main Dish",
      "No. of Servings" : "4",
      "Calorie Budget" : ">100 calories",
      "Nutritional Information" : "Energy -170 calories\nFat - 7 g\nCarbohydrates - 0 g\nProtein -26 g\nSodium - 147 mg"
    },
    {
      "Recipe Name" : "Easy Grilled Fish Steak ",
      "Ingedients" : "2 Tbsp. olive oil\n1 Tbsp. lemon juice\n1 clove garlic, minced\n½ tsp. cumin, ground\n½ tsp. turmeric powder\n4 (4 oz.) blue marlin steak (tuna or salmon)\nsalt and freshly ground black pepper\ncooking oil spray\n",
      "Method" : "1. Preheat grill or griddle on high. Grease with oil spray.\n2. In a shallow dish, mix together oil, lemon juice, garlic, cumin, and turmeric. Add fish steaks and rub with mixture.\n3. Grill fish steaks for 3-5 minutes on each side or until grill marks form and cooked through.\n4. Transfer in a serving dish.\n5. Serve immediately and enjoy.\n",
      "Ingredient Type" : "Fish",
      "Meal Type" : "Lunch, Dinner",
      "Food Type" : "Main Dish",
      "No. of Servings" : "4",
      "Calorie Budget" : ">200 calories",
      "Nutritional Information" : "Energy -275 calories\nFat - 16 g\nCarbohydrates - 1 g\nProtein -30 g\nSodium - 205 mg"
    },
    {
      "Recipe Name" : "Spiced Roasted Salmon and Veggies",
      "Ingredients" : "¼ tsp. salt\n½ tsp. cumin, ground\n½ tsp. coriander, ground\n½ tsp. sweet paprika\n1/8 tsp. all spice, ground\n1/8 tsp. freshly ground black pepper\n4 (4 oz.) salmon fillet \n¼ cup olive oil\n2 Tbsp. lemon juice\n1 Tbsp. fresh rosemary, chopped\n4 medium boiled potatoes, quartered\n½ lb. green beans, trimmed\n\n",
      "Method" : "1. Preheat oven to 450 F.\n2. Combine salt, cumin, coriander seed, paprika, all spice, and pepper in a shallow dish. Rub fish with mixture evenly. Set aside.\n3. In a small bowl, mix together oil, lemon juice, and rosemary. \n4. Place green beans and potatoes in a baking dish. Brush with olive oil mixture. Top with salmon and brush with remaining olive oil mixture.\n5. Bake in the oven for 10-15 minutes or until salmon is cooked through.\n",
      "Ingredient Type": "Fish",
      "Meal Type" : "Lunch, Dinner",
      "Food Type" : "Main Dish",
      "No. of Servings" : "4",
      "Calorie Budget" : ">400 calories",
      "Nutritional Information" : "Energy - 411 calories\nFat - 17 g\nCarbohydrates - 39 g\nProtein - 26 g\nSodium - 216 mg\n"
    },
    {
      "Recipe Name" : "Homemade Grilled Fish Burger ",
      "Ingredients" : "2 lbs. poached fish fillet, flaked\n3/4 cup dry bread crumbs\n½ cup red onion, chopped\n1 Tbsp. Dijon mustard\n2 tsp. prepared horseradish\n2 eggs, lightly beaten\n1 Tbsp. fresh rosemary, chopped\n1 tsp. fresh dill weed, chopped\nsalt and freshly ground black pepper\ncooking oil spray\n",
      "Method" : "1. In a large bowl, mix together fish with breadcrumbs, onion, Dijon mustard, horseradish, eggs, rosemary, and dill. Season with salt and pepper to taste. Cover and chill for at least 30 minutes inside the refrigerator.\n2. Preheat grill or griddle on medium-high heat. Grease with cooking oil spray.\n3. Shape the salmon mixture into 8 patties. Place salmon patties on the grill. Cook for 4-5 minutes on each side.\n4. Transfer in a serving dish.\n5. Serve and enjoy.\n",
      "Ingredient Type": "Fish",
      "Meal Type" : "Lunch, Dinner",
      "Food Type" : "Main Dish",
      "No. of Servings" : "8",
      "Calorie Budget" : ">200 calories",
      "Nutritional Information" : "Energy - 211 calories\nFat - 6 g\nCarbohydrates - 9 g\nProtein - 29 g\nSodium - 278 mg"
    },
    {
      "Recipe Name" : "Yummy Fish Burger Recipe",
      "Ingredients" : "1 ½ lb. fresh tuna steaks, minced\n1 carrot, grated\n½ cup celery stalks, chopped\n½ cup onion, chopped\n½ cup fresh chives, chopped \n1 medium egg\n1 cup panko crumbs or breadcrumbs \n¼ cup mayonnaise\nsalt and freshly ground black pepper \nvegetable oil, for frying\n",
      "Method" : "1. In a large bowl, mix together tuna, carrot, celery, onion, chives, egg, breadcrumbs, and mayonnaise. Season with salt and black pepper, to taste. Shape to form into patties, about 1/3 cup each.\n2. Heat oil in a skillet over medium heat. Cook patties until golden brown, about 3-5 minutes on each side.\n3. Serve and enjoy.\n",
      "Ingredient Type": "Fish",
      "Meal Type" : "Lunch, Dinner",
      "Food Type" : "Main Dish",
      "No. of Servings" : "8",
      "Calorie Budget" : ">200 calories",
      "Nutritional Information" : "Energy - 284 calories\nFat - 13 g\nCarbohydrates - 13 g\nProtein - 28 g\nSodium - 286 mg"
    },
    {
      "Recipe Name" : "Grilled Balsamic Salmon with Rosemary",
      "Ingredients" : "4 (4 ounce) salmon fillets\n2 Tbsp. balsamic vinegar\n2 Tbsp. olive oil\n1 Tbsp. Dijon mustard\n2 cloves garlic, minced\n1 sprig fresh rosemary, minced\nsalt and freshly ground black pepper\n",
      "Method" : "1. Whisk together balsamic vinegar, olive oil, Dijon mustard, garlic, and rosemary in a shallow ceramic dish. Add salmon fillets and turn to coat all sides. Cover and refrigerate for 30 minutes to absorb flavors.\n2. Grill salmon over medium-high heat for about 5 minutes on each side or until grill marks form and fish is cooked through.\n3. Transfer to a serving platter.\n4. Serve and enjoy.\n",
      "Ingredient Type": "Fish",
      "Meal Type" : "Lunch, Dinner",
      "Food Type" : "Main Dish",
      "No. of Servings" : "4",
      "Calorie Budget" : ">200 calories",
      "Nutritional Information" : "Energy - 219 calories\nFat - 14 g\nCarbohydrates - 1 g\nProtein - 22 g\nSodium - 243 mg"
    },
    {
      "Recipe Name" : "Smoked Salmon Sour Cream and Chives Canapé",
      "Ingedients" : "12 slices rye bread\n12 (1.5 oz.) slices smoked salmon  \n2/3 cup sour cream\n2 tablespoons fresh chives, finely chopped\n1/2 teaspoon garlic powder\nsalt and freshly ground black pepper\nfresh dill weed, for garnish\n",
      "Method" : "1. Cut the rye bread slices into small rounds using a cookie cutter. Set aside.\n2. Combine together the sour cream, fresh chives, and garlic powder in a small bowl. Season with salt and pepper, to taste. Mix them thoroughly. \n3. Top each bread slice with 1 tablespoon sour cream mixture and 1 slice salmon and garnish with dill.\n4. Place in a serving dish.\n5. Serve and enjoy.\n",
      "Ingredient Type" : "Fish",
      "Meal Type" : "Snack",
      "Food Type" : "Appetizer",
      "No. of Servings" : "12",
      "Calorie Budget" : "<100 calories",
      "Nutritional Information" : "Energy - 96 calories\nFat - 6 g\nCarbohydrates - 14 g\nProtein - 8 g\nSodium - 549 mg"
    },
    {
      "Recipe Name" : "Easy Salmon Yogurt and Herb Canapé",
      "Ingredients" : "1 French baguette\n10 (1 oz.) slices smoked salmon  \n3/4 cup Greek yogurt\n2 tablespoons fresh chives, finely chopped\n½ teaspoon cumin, ground\nsalt and freshly ground black pepper\nchopped fresh dill weed, for garnish\n",
      "Method" : "1. Cut the baguette into 10 thin equal slices. Set aside.\n2. Combine together the yogurt and fresh chives in a small bowl. Season with salt and pepper, to taste. Mix well. \n3. Top each bread slice with 1 tablespoon yogurt mixture and 1 slice salmon. Garnish with dill and sprinkle with cumin. Place in a serving dish.\n4. Serve and enjoy.\n",
      "Ingredient Type": "Fish",
      "Meal Type" : "Snack",
      "Food Type" : "Appetizer",
      "No. of Servings" : "10",
      "Calorie Budget" : ">100 calories",
      "Nutritional Information" : "Energy - 119 calories\nFat - 2 g\nCarbohydrates - 15 g\nProtein - 10 g\nSodium - 493 mg"
    },
    {
      "Recipe Name" : "Tuna Onion and Dill Canapé",
      "Ingredients" : "24 thin slices of toasted French bread\n1 cup canned tuna in water, drained and flaked\n¾ cup light mayonnaise\n1 medium white onion, finely chopped\n2 tablespoons fresh dill weed, finely chopped\n2 tablespoons pickle relish\nsalt and freshly ground black pepper \nmore fresh dill weed, for garnish\n",
      "Method" : "1. Combine the tuna, light mayonnaise, onion, dill, and pickle relish in a medium bowl. Season with salt and pepper, to taste.\n2. Spread 1 tablespoon tuna mixture onto each toasted bread slice. Garnish with fresh dill weed.\n3. Place in a serving dish. Serve and enjoy.\n",
      "Ingredient Type": "Fish",
      "Meal Type" : "Snack",
      "Food Type" : "Appetizer",
      "No. of Servings" : "24",
      "Calorie Budget" : ">100 calories",
      "Nutritional Information" : "Energy - 101 calories\nFat - 3 g\nCarbohydrates - 13 g\nProtein - 5 g\nSodium - 244 mg\n"
    },
    {
      "Recipe Name" : "Tuna and Cucumber Rolls",
      "Ingredients" : "4 large pita bread\n1 medium cucumber, thinly sliced\n8 Romaine lettuce leaves\n1 cup canned tuna in water, drained and flaked\n3/4 cup mayonnaise\n1 medium red onion, finely chopped\n1/2 teaspoon dried tarragon\n1/2 teaspoon coriander seed, ground\nsalt and freshly ground black pepper \nfresh parsley, for garnish\n",
      "Method" : "1. Combine the tuna, mayonnaise, onion, tarragon, and coriander in a medium bowl. Season with salt and pepper, to taste.\n2. Place 2 lettuce leaves and 4 cucumber slices on each pita bread. Top with tuna mixture. Roll it up to enclose the filling. Cut each wrap into four equal portions to make four rolls.\n3. Place in a serving dish and garnish with fresh parsley.\n4. Serve and enjoy.\n",
      "Ingredient Type": "Fish",
      "Meal Type" : "Snack",
      "Food Type" : "Appetizer",
      "No. of Servings" : "16",
      "Calorie Budget" : ">100 calories",
      "Nutritional Information" : "Energy - 111 calories\nFat - 5 g\nCarbohydrates - 11 g\nProtein - 5 g\nSodium - 228 mg"
    },
    {
      "Recipe Name" : "Tuna and Veggie Salad",
      "Ingredients" : "1 head romaine lettuce, torn\n1 medium cucumber, sliced \n1 cup cherry tomatoes, halved\n½ cup black olives\n1 cup tuna flakes in water\n\nVinaigrette Dressing:\n1 Tbsp. Dijon mustard\n1 clove garlic, minced\n1/4 cup sherry vinegar\n1/4 cup olive oil\ndash of salt and pepper\n",
      "Method" : "1. Make the vinaigrette by whisking together mustard, garlic, and vinegar. Gradually stir in the olive oil. Season with salt and pepper to taste. \n2. In a salad bowl, toss together lettuce, cucumber, tomatoes, olives, and tuna. Set aside. \n3. Pour vinaigrette over prepared salad. \n4. Serve and enjoy.\n",
      "Ingredient Type": "Fish",
      "Meal Type" : "Lunch, Dinner",
      "Food Type" : "Salad",
      "No. of Servings" : "4",
      "Calorie Budget" : ">200 calories",
      "Nutritional Information" : "Energy - 237 calories\nFat - 16 g\nCarbohydrates - 9 g\nProtein - 15 g\nSodium - 376 mg"
    },
    {
      "Recipe Name" : "Barbecued Salmon Steak",
      "Ingredients" : "4 (4 oz.) fresh salmon steak        \nsalt and freshly ground black pepper \n2 tablespoons olive oil\n¼ cup ketchup\n2 tablespoons steak sauce\n1 tablespoon lime juice\n1 tablespoon honey\n1 teaspoon Worcestershire sauce\n½ teaspoon cumin, ground\n½ teaspoon paprika\n",
      "Method" : "1. Preheat grill to medium-high.\n2. Season salmon with salt and pepper, to taste. Set aside.\n3. In a small bowl, mix together oil, ketchup, steak sauce, lime juice, honey, Worcestershire sauce, cumin, and paprika.\n4. Grill salmon fillets for 5-7 minutes on each side or until grill marks form and cooked through. Brushing with barbecue sauce frequently.\n5. Place in a serving dish.\n6. Serve and enjoy.\n",
      "Ingredient Type": "Fish",
      "Meal Type" : "Lunch, Dinner",
      "Food Type" : "Main Dish",
      "No. of Servings" : "4",
      "Calorie Budget" : ">200 calories",
      "Nutritional Information" : "Energy - 251 calories\nFat - 14 g\nCarbohydrates - 10 g\nProtein - 22 g\nSodium - 502 mg"
    },
    {
      "Recipe Name" : "Tuna Spinach and Corn Wrap",
      "Ingredients" : "¾ cup canned tuna, drained and flaked\n½ cup sweetcorn kernels\n1 cup baby spinach\n½ cup light mayonnaise\n¼ cup green onions, chopped\n4 (8-inch) flour tortillas, toasted and warmed\nsalt and freshly ground black pepper\n",
      "Method" : "1. In a medium bowl, combine the tuna, sweetcorn, mayonnaise, and green onions. Season with salt and pepper to taste.\n2. Divide spinach and tuna mixture among 4 tortillas. Roll it up to enclose filling.\n3. Serve and enjoy.\n",
      "Ingredient Type": "Fish",
      "Meal Type" : "Lunch, Dinner",
      "Food Type" : "Main Dish",
      "No. of Servings" : "4",
      "Calorie Budget" : ">200 calories",
      "Nutritional Information" : "Energy - 297 calories\nFat - 15 g\nCarbohydrates - 26 g\nProtein - 15 g\nSodium - 479 mg"
    }



  ]}